<svg xmlns="http://www.w3.org/2000/svg" width="20" height="20">
    <defs>
        <filter id="prefix__a">
            <feFlood flood-color="#9FA9BA" flood-opacity="1" result="floodOut"/>
            <feComposite in="floodOut" in2="SourceGraphic" operator="atop" result="compOut"/>
            <feBlend in="compOut" in2="SourceGraphic"/>
        </filter>
    </defs>
    <g filter="url(#prefix__a)">
        <path fill-rule="evenodd" d="M19.428 19.439c-.223.223-.584.223-.807 0l-5.329-5.33c-1.367 1.181-3.144 1.9-5.092 1.9-4.308 0-7.8-3.492-7.8-7.801S3.892.407 8.2.407 16 3.899 16 8.208c0 1.948-.719 3.726-1.9 5.093l5.328 5.33c.223.223.223.585 0 .808zM14.8 8.208c0-3.646-2.955-6.601-6.6-6.601-3.645 0-6.6 2.955-6.6 6.601s2.955 6.602 6.6 6.602c3.645 0 6.6-2.956 6.6-6.602z"/>
    </g>
</svg>
